%YAML 1.1
%TAG !u! tag:unity3d.com,2011:
--- !u!221 &22100000
AnimatorOverrideController:
  m_ObjectHideFlags: 0
  m_PrefabParentObject: {fileID: 0}
  m_PrefabInternal: {fileID: 0}
  m_Name: banditRangedAnimator
  m_Controller: {fileID: 9100000, guid: 85697595ad57e3243afa972655319718, type: 2}
  m_Clips:
  - m_OriginalClip: {fileID: 7400000, guid: 8d1aca5076e9b934eba9104ac0ec991a, type: 2}
    m_OverrideClip: {fileID: 7400000, guid: c877b4e52f319c943a7ae5c764b1b888, type: 2}
