%YAML 1.1
%TAG !u! tag:unity3d.com,2011:
--- !u!74 &7400000
AnimationClip:
  m_ObjectHideFlags: 0
  m_PrefabParentObject: {fileID: 0}
  m_PrefabInternal: {fileID: 0}
  m_Name: banditRangedIdle
  serializedVersion: 6
  m_Legacy: 0
  m_Compressed: 0
  m_UseHighQualityCurve: 1
  m_RotationCurves: []
  m_CompressedRotationCurves: []
  m_EulerCurves: []
  m_PositionCurves: []
  m_ScaleCurves: []
  m_FloatCurves: []
  m_PPtrCurves:
  - curve:
    - time: 0
      value: {fileID: 21300000, guid: adb5f634d7d0d184389fdb2506bf9c46, type: 3}
    - time: 0.4
      value: {fileID: 21300000, guid: 461626c75fecd0547b5c02f5bed33bdd, type: 3}
    - time: 0.51666665
      value: {fileID: 21300000, guid: adb5f634d7d0d184389fdb2506bf9c46, type: 3}
    - time: 1.45
      value: {fileID: 21300000, guid: 8b4ba3f2947f37c459f8bb018789fefd, type: 3}
    - time: 1.5833334
      value: {fileID: 21300000, guid: adb5f634d7d0d184389fdb2506bf9c46, type: 3}
    - time: 2.0833333
      value: {fileID: 21300000, guid: 8b4ba3f2947f37c459f8bb018789fefd, type: 3}
    - time: 2.2166667
      value: {fileID: 21300000, guid: adb5f634d7d0d184389fdb2506bf9c46, type: 3}
    - time: 2.9166667
      value: {fileID: 21300000, guid: 461626c75fecd0547b5c02f5bed33bdd, type: 3}
    - time: 3.0833333
      value: {fileID: 21300000, guid: 8b4ba3f2947f37c459f8bb018789fefd, type: 3}
    - time: 3.3
      value: {fileID: 21300000, guid: adb5f634d7d0d184389fdb2506bf9c46, type: 3}
    - time: 3.8
      value: {fileID: 21300000, guid: 8b4ba3f2947f37c459f8bb018789fefd, type: 3}
    - time: 3.9333334
      value: {fileID: 21300000, guid: adb5f634d7d0d184389fdb2506bf9c46, type: 3}
    - time: 4.4333334
      value: {fileID: 21300000, guid: 8b4ba3f2947f37c459f8bb018789fefd, type: 3}
    - time: 4.5666666
      value: {fileID: 21300000, guid: adb5f634d7d0d184389fdb2506bf9c46, type: 3}
    - time: 5.6833334
      value: {fileID: 21300000, guid: adb5f634d7d0d184389fdb2506bf9c46, type: 3}
    attribute: m_Sprite
    path: 
    classID: 212
    script: {fileID: 0}
  m_SampleRate: 60
  m_WrapMode: 0
  m_Bounds:
    m_Center: {x: 0, y: 0, z: 0}
    m_Extent: {x: 0, y: 0, z: 0}
  m_ClipBindingConstant:
    genericBindings:
    - path: 0
      attribute: 0
      script: {fileID: 0}
      classID: 212
      customType: 23
      isPPtrCurve: 1
    pptrCurveMapping:
    - {fileID: 21300000, guid: adb5f634d7d0d184389fdb2506bf9c46, type: 3}
    - {fileID: 21300000, guid: 461626c75fecd0547b5c02f5bed33bdd, type: 3}
    - {fileID: 21300000, guid: adb5f634d7d0d184389fdb2506bf9c46, type: 3}
    - {fileID: 21300000, guid: 8b4ba3f2947f37c459f8bb018789fefd, type: 3}
    - {fileID: 21300000, guid: adb5f634d7d0d184389fdb2506bf9c46, type: 3}
    - {fileID: 21300000, guid: 8b4ba3f2947f37c459f8bb018789fefd, type: 3}
    - {fileID: 21300000, guid: adb5f634d7d0d184389fdb2506bf9c46, type: 3}
    - {fileID: 21300000, guid: 461626c75fecd0547b5c02f5bed33bdd, type: 3}
    - {fileID: 21300000, guid: 8b4ba3f2947f37c459f8bb018789fefd, type: 3}
    - {fileID: 21300000, guid: adb5f634d7d0d184389fdb2506bf9c46, type: 3}
    - {fileID: 21300000, guid: 8b4ba3f2947f37c459f8bb018789fefd, type: 3}
    - {fileID: 21300000, guid: adb5f634d7d0d184389fdb2506bf9c46, type: 3}
    - {fileID: 21300000, guid: 8b4ba3f2947f37c459f8bb018789fefd, type: 3}
    - {fileID: 21300000, guid: adb5f634d7d0d184389fdb2506bf9c46, type: 3}
    - {fileID: 21300000, guid: adb5f634d7d0d184389fdb2506bf9c46, type: 3}
  m_AnimationClipSettings:
    serializedVersion: 2
    m_AdditiveReferencePoseClip: {fileID: 0}
    m_AdditiveReferencePoseTime: 0
    m_StartTime: 0
    m_StopTime: 5.7000003
    m_OrientationOffsetY: 0
    m_Level: 0
    m_CycleOffset: 0
    m_HasAdditiveReferencePose: 0
    m_LoopTime: 1
    m_LoopBlend: 0
    m_LoopBlendOrientation: 0
    m_LoopBlendPositionY: 0
    m_LoopBlendPositionXZ: 0
    m_KeepOriginalOrientation: 0
    m_KeepOriginalPositionY: 1
    m_KeepOriginalPositionXZ: 0
    m_HeightFromFeet: 0
    m_Mirror: 0
  m_EditorCurves: []
  m_EulerEditorCurves: []
  m_HasGenericRootTransform: 0
  m_HasMotionFloatCurves: 0
  m_GenerateMotionCurves: 0
  m_IsEmpty: 0
  m_Events: []
