%YAML 1.1
%TAG !u! tag:unity3d.com,2011:
--- !u!1045 &1
EditorBuildSettings:
  m_ObjectHideFlags: 0
  serializedVersion: 2
  m_Scenes:
  - enabled: 1
    path: Assets/ProjectAssets/Scenes/master.unity
  - enabled: 1
    path: Assets/ProjectAssets/Scenes/MainMenu.unity
  - enabled: 1
    path: Assets/ProjectAssets/Scenes/fightScene.unity
  - enabled: 1
    path: Assets/ProjectAssets/Scenes/eventChoice.unity
  - enabled: 1
    path: Assets/ProjectAssets/Scenes/preEvent.unity
